[
    {
      "lat": 43.7624,
      "lng": -79.18,
      "program": "AcadÃ©mie Alexandre-Dumas",
      "agency": "Conseil Scolaire -Viamonde",
      "address": "255 Coronation Dr",
      "phone": "905-732-4280"
    },
    {
      "lat": 43.6934,
      "lng": -79.2996,
      "program": "Access Alliance Play Group",
      "agency": "Access Alliance Multicultural Health and Community Services",
      "address": "60 Secord Ave",
      "phone": "416-324-8677"
    },
    {
      "lat": 43.6917,
      "lng": -79.3018,
      "program": "Access Alliance Workshop",
      "agency": "Access Alliance Multicultural Health and Community Services",
      "address": "91 Barrington Ave",
      "phone": "416-324-8677"
    },
    {
      "lat": 43.7731,
      "lng": -79.3894,
      "program": "Adventure Place - Bayview Park",
      "agency": "Adventure Place",
      "address": "2945 Bayview Ave",
      "phone": "416-744-7650"
    },
    {
      "lat": 43.7846,
      "lng": -79.2812,
      "program": "Agincourt Community Services Association",
      "agency": "West Scarborough Neighbourhood Community Centre",
      "address": "4155 Sheppard Ave E",
      "phone": "416-299-9872"
    },
    {
      "lat": 43.8192,
      "lng": -79.2788,
      "program": "Agnes Macphail Public School",
      "agency": "Malvern Family Resource Centre",
      "address": "112 Goldhawk Trail",
      "phone": "416-281-1376"
    },
    {
      "lat": 43.7398,
      "lng": -79.5844,
      "program": "Albion Library Satellite",
      "agency": "Braeburn Neighbourhood Place Incorporated",
      "address": "1515 Albion Rd",
      "phone": "416-745-3113"
    },
    {
      "lat": 43.6515,
      "lng": -79.3991,
      "program": "Alexandra Park Moms & Tots Drop-In",
      "agency": "Alexandra Park Residents Association/Community Centre",
      "address": "105 Grange Crt",
      "phone": "416-603-9603"
    },
    {
      "lat": 43.7064,
      "lng": -79.4859,
      "program": "Amesbury Park Library",
      "agency": "Macaulay Child Development Centre",
      "address": "1565 Lawrence Ave W",
      "phone": "416-783-7298"
    },
    {
      "lat": 43.6632,
      "lng": -79.4666,
      "program": "Annette Public Library Drop-In",
      "agency": "Macaulay Child Development Centre",
      "address": "145 Annette St",
      "phone": "416-783-7298"
    },
    {
      "lat": 43.8042,
      "lng": -79.2618,
      "program": "Anson Taylor",
      "agency": "Malvern Family Resource Centre",
      "address": "20 Placentia Blvd",
      "phone": "416-281-1376"
    },
    {
      "lat": 43.6662,
      "lng": -79.3222,
      "program": "Applegrove Parent Child Drop-In",
      "agency": "Applegrove Community Complex",
      "address": "60 Woodfield Rd",
      "phone": "416-461-8143"
    },
    {
      "lat": 43.6729,
      "lng": -79.3183,
      "program": "Applewood Connection Drop-In",
      "agency": "Applegrove Community Complex",
      "address": "31 Eastwood Rd",
      "phone": "416-461-8143"
    },
    {
      "lat": 43.7207,
      "lng": -79.4324,
      "program": "Barbara Frum Library",
      "agency": "Macaulay Child Development Centre",
      "address": "20 Covington Rd",
      "phone": "416-783-7298"
    },
    {
      "lat": 43.774,
      "lng": -79.4453,
      "program": "Bathurst - Finch Hub",
      "agency": "SickKids Centre for Community Mental Health",
      "address": "540 Finch Ave W",
      "phone": "416-633-4035"
    },
    {
      "lat": 43.751,
      "lng": -79.2442,
      "program": "Bendale Library",
      "agency": "Family Day Care Services",
      "address": "1515 Danforth Rd",
      "phone": "416-438-1800"
    },
    {
      "lat": 43.6956,
      "lng": -79.2633,
      "program": "Birchmount Bluffs Centre",
      "agency": "Birchmount Bluffs Neighbourhood Centre",
      "address": "93 Birchmount Rd",
      "phone": "416-396-4310"
    },
    {
      "lat": 43.7221,
      "lng": -79.5109,
      "program": "Black Creek Community Health Centre",
      "agency": "Jane/Finch Community and Family Centre",
      "address": "2202 Jane St",
      "phone": "416-663-2733 x 264"
    },
    {
      "lat": 43.7347,
      "lng": -79.3807,
      "program": "Bob Rumball Centre for The Deaf Resource Program",
      "agency": "The Bob Rumball Canadian Centre of Excellence for The Deaf",
      "address": "2395 Bayview Ave",
      "phone": "416-449-9651"
    },
    {
      "lat": 43.728,
      "lng": -79.5491,
      "program": "Braeburn Jr School",
      "agency": "Braeburn Neighbourhood Place Incorporated",
      "address": "15 Tandridge Cres",
      "phone": "416-747-0641"
    },
    {
      "lat": 43.7595,
      "lng": -79.3261,
      "program": "Brookbanks Library",
      "agency": "Family Day Care Services",
      "address": "210 Brookbanks Dr",
      "phone": "416-496-2601"
    },
    {
      "lat": 43.7025,
      "lng": -79.4959,
      "program": "Brookhaven Public School",
      "agency": "Macaulay Child Development Centre",
      "address": "70 Brookhaven Dr",
      "phone": "416-783-7298"
    },
    {
      "lat": 43.794,
      "lng": -79.2346,
      "program": "Burrows Hall Library",
      "agency": "Malvern Family Resource Centre",
      "address": "1081 Progress Ave",
      "phone": "416-284-4184"
    },
    {
      "lat": 43.7543,
      "lng": -79.4214,
      "program": "Cameron Public School (Summer Satellite)",
      "agency": "Adventure Place",
      "address": "211 Cameron Ave",
      "phone": "416-494-1579 x 301"
    },
    {
      "lat": 43.6902,
      "lng": -79.3968,
      "program": "Canadian Mothercraft Society - Main Site",
      "agency": "Canadian Mothercraft Society",
      "address": "32 Heath St W",
      "phone": "416-920-3515 x 100"
    },
    {
      "lat": 43.6564,
      "lng": -79.3988,
      "program": "Cecil Community Centre Satellite",
      "agency": "College-Montrose Children's Place",
      "address": "58 Cecil St",
      "phone": "416-392-1090"
    },
    {
      "lat": 43.773,
      "lng": -79.4498,
      "program": "Centennial Public Library",
      "agency": "SickKids Centre for Community Mental Health",
      "address": "578 Finch Ave W",
      "phone": "416-633-4035"
    },
    {
      "lat": 43.708,
      "lng": -79.3939,
      "program": "Central Eglinton Community Centre",
      "agency": "Central Eglinton Community Centre",
      "address": "160 Eglinton Ave E",
      "phone": "416-392-0511"
    },
    {
      "lat": 43.6381,
      "lng": -79.3927,
      "program": "Centre Francophone De Toronto Le Coin",
      "agency": "Centre Francophone De Toronto",
      "address": "20 Lower Spadina Ave",
      "phone": "416-922-2672 x 275"
    },
    {
      "lat": 43.8006,
      "lng": -79.3008,
      "program": "Centre for Immigrant & Community Services",
      "agency": "West Scarborough Neighbourhood Community Centre",
      "address": "3850 Finch Ave E",
      "phone": "416-940-3344"
    },
    {
      "lat": 43.7437,
      "lng": -79.2216,
      "program": "Cliffcrest Family Resource Program",
      "agency": "Cliffcrest Community Centre",
      "address": "14 Centre St",
      "phone": "416-267-6297 x 227"
    },
    {
      "lat": 43.6468,
      "lng": -79.4178,
      "program": "College Montrose Children's Place - Main Site",
      "agency": "College-Montrose Children's Place",
      "address": "180 Shaw St",
      "phone": "416-532-8100"
    },
    {
      "lat": 43.6838,
      "lng": -79.4731,
      "program": "Community Action Resource Centre Family Drop-In",
      "agency": "Community Action Resource Centre in Toronto",
      "address": "1652 Keele St",
      "phone": "416-654-0299"
    },
    {
      "lat": 43.7264,
      "lng": -79.2624,
      "program": "Corvette Family Resource Centre",
      "agency": "East Scarborough Boys' and Girls' Club",
      "address": "30 Corvette Ave",
      "phone": "416-396-5822"
    },
    {
      "lat": 43.6396,
      "lng": -79.4406,
      "program": "Creating Together Parkdale",
      "agency": "Creating Together",
      "address": "1497 Queen St W",
      "phone": "416-537-1004"
    },
    {
      "lat": 43.7014,
      "lng": -79.2849,
      "program": "Creative Child Family Resource Centre",
      "agency": "West Scarborough Neighbourhood Community Centre",
      "address": "313 Pharmacy Ave",
      "phone": "416-755-9215 x 236"
    },
    {
      "lat": 43.7084,
      "lng": -79.2712,
      "program": "Danforth Gardens Jr Public School",
      "agency": "West Scarborough Neighbourhood Community Centre",
      "address": "20 Santamonica Blvd",
      "phone": "416-266-8289"
    },
    {
      "lat": 43.6709,
      "lng": -79.4551,
      "program": "Davenport Perth Neighbourhood Community Health Centre - Main Site",
      "agency": "Davenport-Perth Neighbourhood & Community Health Centre",
      "address": "1900 Davenport Rd",
      "phone": "416-588-3755"
    },
    {
      "lat": 43.759,
      "lng": -79.5718,
      "program": "Delta Humber Summit",
      "agency": "Delta Family Resource Centre",
      "address": "2990 Islington Ave",
      "phone": "416-747-1172"
    },
    {
      "lat": 43.74,
      "lng": -79.5099,
      "program": "Delta Humewood - Jane & Sheppard",
      "agency": "Delta Family Resource Centre",
      "address": "1900 Sheppard Ave W",
      "phone": "416-948-0459"
    },
    {
      "lat": 43.6844,
      "lng": -79.4875,
      "program": "Dennis Ave Community School",
      "agency": "Macaulay Child Development Centre",
      "address": "17 Dennis Ave",
      "phone": "416-653-3270"
    },
    {
      "lat": 43.7708,
      "lng": -79.3281,
      "program": "Don Valley East - Main Site",
      "agency": "Family Day Care Services",
      "address": "332 Consumers Rd",
      "phone": "416-496-2601"
    },
    {
      "lat": 43.6924,
      "lng": -79.3384,
      "program": "Donlands Family Resource Centre",
      "agency": "EYET Early Learning Centre - Annie's Place",
      "address": "1108 Greenwood Ave",
      "phone": "416-686-3390"
    },
    {
      "lat": 43.7388,
      "lng": -79.3476,
      "program": "Donway Covenant United Church",
      "agency": "TNO - The Neighbourhood Organization",
      "address": "230 The Donway W",
      "phone": "416-421-8997"
    },
    {
      "lat": 43.7525,
      "lng": -79.4321,
      "program": "Earl Bales Community Centre Satellite",
      "agency": "SickKids Centre for Community Mental Health",
      "address": "4169 Bathurst St",
      "phone": "416-633-4035"
    },
    {
      "lat": 43.7288,
      "lng": -79.5469,
      "program": "Early Learning Child and Family Centre",
      "agency": "Braeburn Neighbourhood Place Incorporated",
      "address": "75 Tandridge Cres",
      "phone": "416-745-3113"
    },
    {
      "lat": 43.646,
      "lng": -79.429,
      "program": "EarlyON @ Alexander Muir/Gladstone Public School",
      "agency": "Toronto District School Board",
      "address": "108 Gladstone Ave",
      "phone": "416-393-9140"
    },
    {
      "lat": 43.6894,
      "lng": -79.4992,
      "program": "EarlyON @ Bala Avenue Community",
      "agency": "Toronto District School Board",
      "address": "6 Bala Ave",
      "phone": "416-394-2210"
    },
    {
      "lat": 43.6718,
      "lng": -79.3387,
      "program": "EarlyON @ Blake Street Jr Public School",
      "agency": "Toronto District School Board",
      "address": "21 Boultbee Ave",
      "phone": "416-393-9415"
    },
    {
      "lat": 43.7124,
      "lng": -79.33,
      "program": "EarlyON @ Blessed John XXIII",
      "agency": "Toronto Catholic District School Board",
      "address": "175 Grenoble Dr",
      "phone": "416-393-5348"
    },
    {
      "lat": 43.674,
      "lng": -79.458,
      "program": "EarlyON @ Blessed Pope Paul Vi",
      "agency": "Toronto Catholic District School Board",
      "address": "270 Laughton Ave",
      "phone": "416-393-5374"
    },
    {
      "lat": 43.661,
      "lng": -79.3335,
      "program": "EarlyON @ Bruce Jr Public School",
      "agency": "Toronto District School Board",
      "address": "51 Larchmount Ave",
      "phone": "416-393-0670"
    },
    {
      "lat": 43.6723,
      "lng": -79.4602,
      "program": "EarlyON @ Carlton Village Jr & Sr",
      "agency": "Toronto District School Board",
      "address": "315 Osler St",
      "phone": "416-393-1600"
    },
    {
      "lat": 43.7458,
      "lng": -79.2153,
      "program": "EarlyON @ Cedar Drive Jr",
      "agency": "Toronto District School Board",
      "address": "21 Gatesview Ave",
      "phone": "416-396-6120"
    },
    {
      "lat": 43.7271,
      "lng": -79.5146,
      "program": "EarlyON @ Chalkfarm Public School",
      "agency": "Toronto District School Board",
      "address": "100 Chalkfarm Dr",
      "phone": "416-395-2160"
    },
    {
      "lat": 43.6934,
      "lng": -79.4753,
      "program": "EarlyON @ Charles E. Webster Public School",
      "agency": "Toronto District School Board",
      "address": "1900 Keele St",
      "phone": "416-394-2250"
    },
    {
      "lat": 43.6485,
      "lng": -79.4097,
      "program": "EarlyON @ Charles G Fraser Jr Public School",
      "agency": "Toronto District School Board",
      "address": "79 Manning Ave",
      "phone": "416-393-1830"
    },
    {
      "lat": 43.7985,
      "lng": -79.3313,
      "program": "EarlyON @ Chester Le Jr Public School",
      "agency": "Toronto District School Board",
      "address": "201 Chester Le Blvd",
      "phone": "416-396-6145"
    },
    {
      "lat": 43.6636,
      "lng": -79.3794,
      "program": "EarlyON @ Church Street Jr Public School",
      "agency": "Toronto District School Board",
      "address": "83 Alexander St",
      "phone": "416-393-1250"
    },
    {
      "lat": 43.6968,
      "lng": -79.2927,
      "program": "EarlyON @ Crescent Town",
      "agency": "Toronto District School Board",
      "address": "4 Massey Sq",
      "phone": "416-396-2340"
    },
    {
      "lat": 43.7625,
      "lng": -79.5153,
      "program": "EarlyON @ Driftwood Public School",
      "agency": "Toronto District School Board",
      "address": "265 Driftwood Ave",
      "phone": "416-395-2350"
    },
    {
      "lat": 43.662,
      "lng": -79.3489,
      "program": "EarlyON @ Dundas Jr Public School",
      "agency": "Toronto District School Board",
      "address": "935 Dundas St E",
      "phone": "416-393-9565"
    },
    {
      "lat": 43.759,
      "lng": -79.1915,
      "program": "EarlyON @ Eastview Public School",
      "agency": "Toronto District School Board",
      "address": "20 Waldock St",
      "phone": "416-396-6210"
    },
    {
      "lat": 43.6383,
      "lng": -79.5672,
      "program": "EarlyON @ Eatonville Public School",
      "agency": "Toronto District School Board",
      "address": "15 Rossburn Dr",
      "phone": "416-394-7040"
    },
    {
      "lat": 43.7662,
      "lng": -79.266,
      "program": "EarlyON @ Edgewood",
      "agency": "Toronto District School Board",
      "address": "230 Birkdale Rd",
      "phone": "416-396-6215"
    },
    {
      "lat": 43.7364,
      "lng": -79.5902,
      "program": "EarlyON @ Elmbank",
      "agency": "Toronto District School Board",
      "address": "10 Pittsboro Dr",
      "phone": "416-394-7560"
    },
    {
      "lat": 43.6682,
      "lng": -79.4225,
      "program": "EarlyON @ Essex Jr & Sr Public School",
      "agency": "Toronto District School Board",
      "address": "50 Essex St",
      "phone": "416-393-0717"
    },
    {
      "lat": 43.6916,
      "lng": -79.4556,
      "program": "EarlyON @ Fairbank Memorial",
      "agency": "Toronto District School Board",
      "address": "555 Harvie Ave",
      "phone": "416-394-2333"
    },
    {
      "lat": 43.7519,
      "lng": -79.5201,
      "program": "EarlyON @ Firgrove Public School",
      "agency": "Toronto District School Board",
      "address": "270 Firgrove Cres",
      "phone": "416-395-2420"
    },
    {
      "lat": 43.7201,
      "lng": -79.4444,
      "program": "EarlyON @ Flemington Public School",
      "agency": "Toronto District School Board",
      "address": "10 Flemington Rd",
      "phone": "416-395-4992"
    },
    {
      "lat": 43.7056,
      "lng": -79.3436,
      "program": "EarlyON @ Fraser Mustard",
      "agency": "Toronto District School Board",
      "address": "82 Thorncliffe Park Dr",
      "phone": "416-396-3050"
    },
    {
      "lat": 43.679,
      "lng": -79.4642,
      "program": "EarlyON @ General Mercer Jr Public School",
      "agency": "Toronto District School Board",
      "address": "30 Turnberry Ave",
      "phone": "416-393-1414"
    },
    {
      "lat": 43.7019,
      "lng": -79.2997,
      "program": "EarlyON @ George Webster Public School",
      "agency": "Toronto District School Board",
      "address": "2 Cedarcrest Blvd",
      "phone": "416-396-2375"
    },
    {
      "lat": 43.7054,
      "lng": -79.4791,
      "program": "EarlyON @ George anderson",
      "agency": "Toronto District School Board",
      "address": "30 George Anderson Dr",
      "phone": "416-395-5000"
    },
    {
      "lat": 43.7382,
      "lng": -79.2543,
      "program": "EarlyON @ Glen Ravine Jr",
      "agency": "Toronto District School Board",
      "address": "11 Gadsby Dr",
      "phone": "416-396-6280"
    },
    {
      "lat": 43.7152,
      "lng": -79.3325,
      "program": "EarlyON @ Grenoble Public School",
      "agency": "Toronto District School Board",
      "address": "9 Grenoble Dr",
      "phone": "416-397-2906"
    },
    {
      "lat": 43.7276,
      "lng": -79.2319,
      "program": "EarlyON @ H A Halbert Junior Public School",
      "agency": "Toronto District School Board",
      "address": "31 Mccowan Rd",
      "phone": "416-396-6300"
    },
    {
      "lat": 43.7944,
      "lng": -79.3005,
      "program": "EarlyON @ Highland Heights Jr",
      "agency": "Toronto District School Board",
      "address": "35 Glendower Circt",
      "phone": "416-396-6335"
    },
    {
      "lat": 43.7812,
      "lng": -79.3033,
      "program": "EarlyON @ Holy Spirit",
      "agency": "Toronto Catholic District School Board",
      "address": "3530 Sheppard Ave E",
      "phone": "416-393-5282"
    },
    {
      "lat": 43.6474,
      "lng": -79.5281,
      "program": "EarlyON @ Islington Jr",
      "agency": "Toronto District School Board",
      "address": "44 Cordova Ave",
      "phone": "416-394-7870"
    },
    {
      "lat": 43.6949,
      "lng": -79.4365,
      "program": "EarlyON @ J R Wilcox Community",
      "agency": "Toronto District School Board",
      "address": "231 Ava Rd",
      "phone": "416-394-2388"
    },
    {
      "lat": 43.744,
      "lng": -79.2401,
      "program": "EarlyON @ John Mccrae Public School",
      "agency": "Toronto District School Board",
      "address": "431 Mccowan Rd",
      "phone": "416-396-6395"
    },
    {
      "lat": 43.7669,
      "lng": -79.1759,
      "program": "EarlyON @ Joseph Brant Public School",
      "agency": "Toronto District School Board",
      "address": "270 Manse Rd",
      "phone": "416-396-6400"
    },
    {
      "lat": 43.7848,
      "lng": -79.3459,
      "program": "EarlyON @ Kingslake Public School",
      "agency": "Toronto District School Board",
      "address": "90 Kingslake Rd",
      "phone": "416-395-2610"
    },
    {
      "lat": 43.6978,
      "lng": -79.551,
      "program": "EarlyON @ Kingsview Village Jr Public School",
      "agency": "Toronto District School Board",
      "address": "1 York Rd",
      "phone": "416-394-7950"
    },
    {
      "lat": 43.7452,
      "lng": -79.25,
      "program": "EarlyON @ Knob Hill",
      "agency": "Toronto District School Board",
      "address": "25 Seminole Ave",
      "phone": "416-396-6415"
    },
    {
      "lat": 43.6608,
      "lng": -79.3672,
      "program": "EarlyON @ Lord Dufferin Jr & Sr Public School",
      "agency": "Toronto District School Board",
      "address": "350 Parliament St",
      "phone": "416-393-1760"
    },
    {
      "lat": 43.7965,
      "lng": -79.2907,
      "program": "EarlyON @ Lynnwood Heights",
      "agency": "Toronto District School Board",
      "address": "50 Southlawn Dr",
      "phone": "416-396-6430"
    },
    {
      "lat": 43.7148,
      "lng": -79.4905,
      "program": "EarlyON @ Maple Leaf Public School",
      "agency": "Toronto District School Board",
      "address": "301 Culford Rd",
      "phone": "416-395-2670"
    },
    {
      "lat": 43.6498,
      "lng": -79.3649,
      "program": "EarlyON @ Market Lane Jr & Sr Public School",
      "agency": "Toronto District School Board",
      "address": "246 The Esplanade",
      "phone": "416-393-1300"
    },
    {
      "lat": 43.7392,
      "lng": -79.2259,
      "program": "EarlyON @ Mason Road Jr",
      "agency": "Toronto District School Board",
      "address": "78 Mason Rd",
      "phone": "416-396-6460"
    },
    {
      "lat": 43.7891,
      "lng": -79.1973,
      "program": "EarlyON @ Military Trail Public School",
      "agency": "Toronto District School Board",
      "address": "701 Military Trail",
      "phone": "416-396-3262"
    },
    {
      "lat": 43.6601,
      "lng": -79.3404,
      "program": "EarlyON @ Morse Street Jr Public School",
      "agency": "Toronto District School Board",
      "address": "180 Carlaw Ave",
      "phone": "416-393-9494"
    },
    {
      "lat": 43.6583,
      "lng": -79.3608,
      "program": "EarlyON @ Nelson Mandela Park Jr",
      "agency": "Toronto District School Board",
      "address": "440 Shuter St",
      "phone": "416-393-1620"
    },
    {
      "lat": 43.6439,
      "lng": -79.4085,
      "program": "EarlyON @ Niagara Street Jr Public School",
      "agency": "Toronto District School Board",
      "address": "222 Niagara St",
      "phone": "416-393-1372"
    },
    {
      "lat": 43.7165,
      "lng": -79.3044,
      "program": "EarlyON @ O'Connor Public School",
      "agency": "Toronto District School Board",
      "address": "1665 O'Connor Dr",
      "phone": "416-397-2980"
    },
    {
      "lat": 43.6949,
      "lng": -79.2827,
      "program": "EarlyON @ Oakridge Junior Public School",
      "agency": "Toronto District School Board",
      "address": "110 Byng Ave",
      "phone": "416-396-6505"
    },
    {
      "lat": 43.7161,
      "lng": -79.4315,
      "program": "EarlyON @ Our Lady of Assumption",
      "agency": "Toronto Catholic District School Board",
      "address": "125 Glenmount Ave",
      "phone": "416-393-5265"
    },
    {
      "lat": 43.6703,
      "lng": -79.3421,
      "program": "EarlyON @ Pape Avenue Jr Public School",
      "agency": "Toronto District School Board",
      "address": "220 Langley Ave",
      "phone": "416-393-9470"
    },
    {
      "lat": 43.6431,
      "lng": -79.437,
      "program": "EarlyON @ Parkdale Jr & Sr Public School",
      "agency": "Toronto District School Board",
      "address": "78 Seaforth Ave",
      "phone": "416-393-1280"
    },
    {
      "lat": 43.682,
      "lng": -79.57,
      "program": "EarlyON @ Parkfield Public School",
      "agency": "Toronto District School Board",
      "address": "31 Redgrave Dr",
      "phone": "416-394-7960"
    },
    {
      "lat": 43.7899,
      "lng": -79.4349,
      "program": "EarlyON @ Pleasant Public School",
      "agency": "Toronto District School Board",
      "address": "288 Pleasant Ave",
      "phone": "416-395-2770"
    },
    {
      "lat": 43.6922,
      "lng": -79.51,
      "program": "EarlyON @ Portage Trail Public School",
      "agency": "Toronto District School Board",
      "address": "100 Sidney Belsey Cres",
      "phone": "416-394-4260"
    },
    {
      "lat": 43.6362,
      "lng": -79.4349,
      "program": "EarlyON @ Queen Victoria Jr Public School",
      "agency": "Toronto District School Board",
      "address": "100 Close Ave",
      "phone": "416-393-9200"
    },
    {
      "lat": 43.7862,
      "lng": -79.4525,
      "program": "EarlyON @ Rockford Public School",
      "agency": "Toronto District School Board",
      "address": "60 Rockford Rd",
      "phone": "416-395-2820"
    },
    {
      "lat": 43.6738,
      "lng": -79.3233,
      "program": "EarlyON @ Roden Jr Public School",
      "agency": "Toronto District School Board",
      "address": "151 Hiawatha Rd",
      "phone": "416-393-9555"
    },
    {
      "lat": 43.6701,
      "lng": -79.3727,
      "program": "EarlyON @ Rose Avenue Jr Public School",
      "agency": "Toronto District School Board",
      "address": "675 Ontario St",
      "phone": "416-393-1260"
    },
    {
      "lat": 43.6812,
      "lng": -79.4993,
      "program": "EarlyON @ Roseland Jr Public School",
      "agency": "Toronto District School Board",
      "address": "990 Jane St",
      "phone": "416-394-3110"
    },
    {
      "lat": 43.7647,
      "lng": -79.322,
      "program": "EarlyON @ Roywood",
      "agency": "Toronto District School Board",
      "address": "11 Roywood Dr",
      "phone": "416-395-2830"
    },
    {
      "lat": 43.6512,
      "lng": -79.4028,
      "program": "EarlyON @ Ryerson Community School",
      "agency": "Toronto District School Board",
      "address": "96 Denison Ave",
      "phone": "416-393-1340"
    },
    {
      "lat": 43.6923,
      "lng": -79.302,
      "program": "EarlyON @ Secord Es",
      "agency": "Toronto District School Board",
      "address": "101 Barrington Ave",
      "phone": "416-396-2450"
    },
    {
      "lat": 43.7454,
      "lng": -79.4885,
      "program": "EarlyON @ Sheppard",
      "agency": "Toronto District School Board",
      "address": "1430 Sheppard Ave W",
      "phone": "416-395-2860"
    },
    {
      "lat": 43.6485,
      "lng": -79.4369,
      "program": "EarlyON @ Shirley Street Jr Public School",
      "agency": "Toronto District School Board",
      "address": "38 Shirley St",
      "phone": "416-393-9270"
    },
    {
      "lat": 43.7687,
      "lng": -79.5176,
      "program": "EarlyON @ Shoreham",
      "agency": "Toronto District School Board",
      "address": "31 Shoreham Dr",
      "phone": "416-395-2870"
    },
    {
      "lat": 43.6872,
      "lng": -79.4696,
      "program": "EarlyON @ Silverthorn Community School",
      "agency": "Toronto District School Board",
      "address": "300 Kane Ave",
      "phone": "416-394-3033 x 20112"
    },
    {
      "lat": 43.6644,
      "lng": -79.364,
      "program": "EarlyON @ Sprucecourt Jr Public School",
      "agency": "Toronto District School Board",
      "address": "70 Spruce St",
      "phone": "416-393-1522"
    },
    {
      "lat": 43.7973,
      "lng": -79.3096,
      "program": "EarlyON @ St. Aidan",
      "agency": "Toronto Catholic District School Board",
      "address": "3521 Finch Ave E",
      "phone": "416-393-5350"
    },
    {
      "lat": 43.7436,
      "lng": -79.2616,
      "program": "EarlyON @ St. Albert",
      "agency": "Toronto Catholic District School Board",
      "address": "1125 Midland Ave",
      "phone": "416-393-5335"
    },
    {
      "lat": 43.7544,
      "lng": -79.5971,
      "program": "EarlyON @ St. Angela",
      "agency": "Toronto Catholic District School Board",
      "address": "220 Mount Olive Dr",
      "phone": "416-393-5361"
    },
    {
      "lat": 43.6636,
      "lng": -79.4352,
      "program": "EarlyON @ St. Anthony",
      "agency": "Toronto Catholic District School Board",
      "address": "130 Shanly St",
      "phone": "416-393-5210"
    },
    {
      "lat": 43.7623,
      "lng": -79.219,
      "program": "EarlyON @ St. Barbara",
      "agency": "Toronto Catholic District School Board",
      "address": "25 Janray Dr",
      "phone": "416-393-5274"
    },
    {
      "lat": 43.7972,
      "lng": -79.2287,
      "program": "EarlyON @ St. Barnabas",
      "agency": "Toronto Catholic District School Board",
      "address": "30 Washburn Way",
      "phone": "416-393-5351"
    },
    {
      "lat": 43.7625,
      "lng": -79.5183,
      "program": "EarlyON @ St. Charles Garnier",
      "agency": "Toronto Catholic District School Board",
      "address": "20 Stong Crt",
      "phone": "416-393-5363"
    },
    {
      "lat": 43.8061,
      "lng": -79.212,
      "program": "EarlyON @ St. Columba",
      "agency": "Toronto Catholic District School Board",
      "address": "10 John Tabor Trail",
      "phone": "416-393-5380"
    },
    {
      "lat": 43.7314,
      "lng": -79.5919,
      "program": "EarlyON @ St. Dorothy",
      "agency": "Toronto Catholic District School Board",
      "address": "155 John Garland Blvd",
      "phone": "416-393-5341"
    },
    {
      "lat": 43.7541,
      "lng": -79.5193,
      "program": "EarlyON @ St. Francis De Sales",
      "agency": "Toronto Catholic District School Board",
      "address": "333 Firgrove Cres",
      "phone": "416-393-5366"
    },
    {
      "lat": 43.652,
      "lng": -79.4364,
      "program": "EarlyON @ St. Helen",
      "agency": "Toronto Catholic District School Board",
      "address": "1196 College St",
      "phone": "416-393-5208"
    },
    {
      "lat": 43.6142,
      "lng": -79.4965,
      "program": "EarlyON @ St. Leo",
      "agency": "Toronto Catholic District School Board",
      "address": "165 Stanley Ave",
      "phone": "416-393-5333"
    },
    {
      "lat": 43.7682,
      "lng": -79.1961,
      "program": "EarlyON @ St. Margaret's Public School",
      "agency": "Toronto District School Board",
      "address": "235 Galloway Rd",
      "phone": "416-396-6550"
    },
    {
      "lat": 43.8082,
      "lng": -79.2853,
      "program": "EarlyON @ St. Marguerite Bourgeoys",
      "agency": "Toronto Catholic District School Board",
      "address": "75 Alexmuir Blvd",
      "phone": "416-393-5381"
    },
    {
      "lat": 43.7574,
      "lng": -79.2408,
      "program": "EarlyON @ St. Rose of Lima",
      "agency": "Toronto Catholic District School Board",
      "address": "3220 Lawrence Ave E",
      "phone": "416-393-5269"
    },
    {
      "lat": 43.7599,
      "lng": -79.5027,
      "program": "EarlyON @ St. Wilfrid",
      "agency": "Toronto Catholic District School Board",
      "address": "1685 Finch Ave W",
      "phone": "416-393-5313"
    },
    {
      "lat": 43.7,
      "lng": -79.2775,
      "program": "EarlyON @ Taylor Creek Public School",
      "agency": "Toronto District School Board",
      "address": "644 Warden Ave",
      "phone": "416-396-6625"
    },
    {
      "lat": 43.7222,
      "lng": -79.5523,
      "program": "EarlyON @ The Elms Public School",
      "agency": "Toronto District School Board",
      "address": "45 Golfdown Dr",
      "phone": "416-394-7900"
    },
    {
      "lat": 43.5979,
      "lng": -79.5201,
      "program": "EarlyON @ Twentieth Street Public School",
      "agency": "Toronto District School Board",
      "address": "3190 Lake Shore Blvd W",
      "phone": "416-394-7810"
    },
    {
      "lat": 43.6508,
      "lng": -79.5605,
      "program": "EarlyON @ West Glen",
      "agency": "Toronto District School Board",
      "address": "47 Cowley Ave",
      "phone": "416-394-7160"
    },
    {
      "lat": 43.7401,
      "lng": -79.3039,
      "program": "EarlyON @ Wexford Public School",
      "agency": "Toronto District School Board",
      "address": "1050 Pharmacy Ave",
      "phone": "416-396-6640"
    },
    {
      "lat": 43.7869,
      "lng": -79.2483,
      "program": "EarlyON @ White Haven Public School",
      "agency": "Toronto District School Board",
      "address": "105 Invergordon Ave",
      "phone": "416-396-6645"
    },
    {
      "lat": 43.7611,
      "lng": -79.2098,
      "program": "EarlyON @ Willow Park Jr Public School",
      "agency": "Toronto District School Board",
      "address": "45 Windover Dr",
      "phone": "416-396-6665"
    },
    {
      "lat": 43.7684,
      "lng": -79.4609,
      "program": "EarlyON @ Wilmington",
      "agency": "Toronto District School Board",
      "address": "330 Wilmington Ave",
      "phone": "416-395-2181"
    },
    {
      "lat": 43.7794,
      "lng": -79.2272,
      "program": "EarlyON @ Woburn Jr",
      "agency": "Toronto District School Board",
      "address": "40 Dormington Dr",
      "phone": "416-396-6670"
    },
    {
      "lat": 43.7506,
      "lng": -79.5141,
      "program": "EarlyON @ Yorkwoods Public School",
      "agency": "Toronto District School Board",
      "address": "25 Yorkwoods Gate",
      "phone": "416-395-2990"
    },
    {
      "lat": 43.6625,
      "lng": -79.4603,
      "program": "EarlyON @ indian Road Crescent Jr",
      "agency": "Toronto District School Board",
      "address": "285 Indian Road Cres",
      "phone": "416-393-9025"
    },
    {
      "lat": 43.6665,
      "lng": -79.3811,
      "program": "EarlyON Child and Family Centre - 519 Community Centre",
      "agency": "EYET Early Learning Centre - Annie's Place",
      "address": "519 Church St",
      "phone": "416-686-3390"
    },
    {
      "lat": 43.7026,
      "lng": -79.2982,
      "program": "EarlyON Child and Family Centre - Gower Park Place",
      "agency": "EYET Early Learning Centre - Annie's Place",
      "address": "10 Gower St",
      "phone": "416-686-3390"
    },
    {
      "lat": 43.6677,
      "lng": -79.3747,
      "program": "EarlyON Child and Family Centre - James Town Library",
      "agency": "EYET Early Learning Centre - Annie's Place",
      "address": "495 Sherbourne St",
      "phone": "416-686-3390"
    },
    {
      "lat": 43.6657,
      "lng": -79.467,
      "program": "EarlyON Child and Family Centre - Main Site",
      "agency": "Earlscourt-Creche Child Development Institute",
      "address": "2918 Dundas St W",
      "phone": "416-762-3700"
    },
    {
      "lat": 43.6618,
      "lng": -79.3682,
      "program": "EarlyON Child and Family Centre - Parliament Library",
      "agency": "EYET Early Learning Centre - Annie's Place",
      "address": "269 Gerrard St E",
      "phone": "416-686-3390"
    },
    {
      "lat": 43.6605,
      "lng": -79.3717,
      "program": "EarlyON Child and Family Centre - Robertson House",
      "agency": "EYET Early Learning Centre - Annie's Place",
      "address": "291 Sherbourne St",
      "phone": "416-686-3390"
    },
    {
      "lat": 43.6636,
      "lng": -79.385,
      "program": "EarlyON Child and Family Centre - Toronto Centre Rosedale Ymca",
      "agency": "EYET Early Learning Centre - Annie's Place",
      "address": "15 Breadalbane St",
      "phone": "416-686-3390"
    },
    {
      "lat": 43.6565,
      "lng": -79.3725,
      "program": "EarlyON Child and Family Centre @ Ecole Elementaire Gabrielle-Roy",
      "agency": "Conseil Scolaire -Viamonde",
      "address": "14 Pembroke St",
      "phone": "905-732-4280"
    },
    {
      "lat": 43.6911,
      "lng": -79.2876,
      "program": "EarlyON Child and Family Centre Beaches East York",
      "agency": "EYET Early Learning Centre - Annie's Place",
      "address": "3079 Danforth Ave",
      "phone": "416-686-3390"
    },
    {
      "lat": 43.7017,
      "lng": -79.4542,
      "program": "EarlyON Main Site @ 2700 Dufferin",
      "agency": "Macaulay Child Development Centre",
      "address": "2700 Dufferin St",
      "phone": "416-783-7298"
    },
    {
      "lat": 43.681,
      "lng": -79.4703,
      "program": "EarlyON Main Site @ 48 Regent",
      "agency": "Macaulay Child Development Centre",
      "address": "48 Regent St",
      "phone": "416-653-3270"
    },
    {
      "lat": 43.7189,
      "lng": -79.4302,
      "program": "EarlyON Satellite @ 505 Lawrence",
      "agency": "Macaulay Child Development Centre",
      "address": "505 Lawrence Ave W",
      "phone": "416-783-7298"
    },
    {
      "lat": 43.7164,
      "lng": -79.5054,
      "program": "EarlyON Satellite Site @ Falstaff",
      "agency": "Macaulay Child Development Centre",
      "address": "30 Falstaff Ave",
      "phone": "416-653-3270"
    },
    {
      "lat": 43.7693,
      "lng": -79.1849,
      "program": "East Scarborough Boys and Girls Club - Main Site",
      "agency": "East Scarborough Boys' and Girls' Club",
      "address": "4218 Lawrence Ave E",
      "phone": "416-282-7284"
    },
    {
      "lat": 43.675,
      "lng": -79.3401,
      "program": "East Toronto Family Community Centre",
      "agency": "East Toronto Family Community Centre",
      "address": "86 Blake St",
      "phone": "416-392-1750"
    },
    {
      "lat": 43.6565,
      "lng": -79.4676,
      "program": "Family Fun Satellite",
      "agency": "Earlscourt-Creche Child Development Institute",
      "address": "100 High Park Ave",
      "phone": "416-762-3700"
    },
    {
      "lat": 43.6842,
      "lng": -79.3008,
      "program": "Family Resource Connection",
      "agency": "Day Care Connection (Toronto) Inc.",
      "address": "184 Main St",
      "phone": "416-690-0102"
    },
    {
      "lat": 43.7135,
      "lng": -79.3268,
      "program": "Flemingdon Park School Age and Family Centre",
      "agency": "Family Day Care Services",
      "address": "150 Grenoble Dr",
      "phone": "416-429-6194"
    },
    {
      "lat": 43.7022,
      "lng": -79.421,
      "program": "Forest Hill Library",
      "agency": "Macaulay Child Development Centre",
      "address": "700 Eglinton Ave W",
      "phone": "416-783-7298"
    },
    {
      "lat": 43.6036,
      "lng": -79.5382,
      "program": "Franklin Horner",
      "agency": "Lakeshore Area Multi-Services Project (Lamp) Inc.",
      "address": "432 Horner Ave",
      "phone": "416-252-6471"
    },
    {
      "lat": 43.7574,
      "lng": -79.1935,
      "program": "Galloway Satellite",
      "agency": "East Scarborough Boys' and Girls' Club",
      "address": "100 Galloway Rd",
      "phone": "416-281-0262"
    },
    {
      "lat": 43.6719,
      "lng": -79.3742,
      "program": "Gerrard Resource Centre",
      "agency": "Ryerson University Early Learning Centre",
      "address": "525 Bloor St E",
      "phone": "416-972-1319"
    },
    {
      "lat": 43.6595,
      "lng": -79.3793,
      "program": "Gerrard Resource Centre",
      "agency": "Ryerson University Early Learning Centre",
      "address": "43 Gerrard St E",
      "phone": "416-972-1319"
    },
    {
      "lat": 43.824,
      "lng": -79.2784,
      "program": "Goldhawk Community Centre",
      "agency": "Malvern Family Resource Centre",
      "address": "295 Alton Towers Cir",
      "phone": "416-281-1376"
    },
    {
      "lat": 43.7636,
      "lng": -79.2172,
      "program": "Golf Road Jr Public School",
      "agency": "Family Day Care Services",
      "address": "730 Scarborough Golf Club Rd",
      "phone": "416-438-1800"
    },
    {
      "lat": 43.6652,
      "lng": -79.4995,
      "program": "Gooch Family Resource Program at Dundas West",
      "agency": "College-Montrose Children's Place",
      "address": "3735 Dundas St W",
      "phone": "416-358-0031"
    },
    {
      "lat": 43.6675,
      "lng": -79.4985,
      "program": "Gooch Family Resource Program at Lambton",
      "agency": "College-Montrose Children's Place",
      "address": "50 Bernice Cres",
      "phone": "416-358-0031"
    },
    {
      "lat": 43.7468,
      "lng": -79.1996,
      "program": "Guildwood Library Satellite",
      "agency": "East Scarborough Boys' and Girls' Club",
      "address": "123 Guildwood Pky",
      "phone": "416-282-7284"
    },
    {
      "lat": 43.7455,
      "lng": -79.5894,
      "program": "Highfield Community Enrichment Project",
      "agency": "George Hull Centre for Children and Families",
      "address": "85 Mount Olive Dr",
      "phone": "416-394-6150"
    },
    {
      "lat": 43.7455,
      "lng": -79.5894,
      "program": "Highfield Community Enrichment Project",
      "agency": "Braeburn Neighbourhood Place Incorporated",
      "address": "85 Mount Olive Dr",
      "phone": "416-745-3113"
    },
    {
      "lat": 43.79,
      "lng": -79.1754,
      "program": "Highland Creek Library Satellite",
      "agency": "East Scarborough Boys' and Girls' Club",
      "address": "3550 Ellesmere Rd",
      "phone": "416-282-7284"
    },
    {
      "lat": 43.6495,
      "lng": -79.5301,
      "program": "Islington Village Parent and Preschool Drop-In",
      "agency": "George Hull Centre for Children and Families",
      "address": "25 Burnhamthorpe Rd",
      "phone": "416-626-0215"
    },
    {
      "lat": 43.7568,
      "lng": -79.5173,
      "program": "Jane Finch Community and Family Centre - Main Site",
      "agency": "Jane/Finch Community and Family Centre",
      "address": "1911 Finch Ave W",
      "phone": "416-663-2733 x 264"
    },
    {
      "lat": 43.6985,
      "lng": -79.5021,
      "program": "Jane Street Hub",
      "agency": "Macaulay Child Development Centre",
      "address": "1541 Jane St",
      "phone": "416-645-7575 x 6"
    },
    {
      "lat": 43.6118,
      "lng": -79.4946,
      "program": "John English Drop-In",
      "agency": "Lakeshore Area Multi-Services Project (Lamp) Inc.",
      "address": "95 Mimico Ave",
      "phone": "416-252-6471"
    },
    {
      "lat": 43.7097,
      "lng": -79.464,
      "program": "Joyce Public School",
      "agency": "Macaulay Child Development Centre",
      "address": "26 Joyce Pky",
      "phone": "416-783-7298"
    },
    {
      "lat": 43.7292,
      "lng": -79.4826,
      "program": "Kids' Place Parent Child Drop-In",
      "agency": "Northwood Neighbourhood Services",
      "address": "2801 Keele St",
      "phone": "416-398-0030"
    },
    {
      "lat": 43.6856,
      "lng": -79.3227,
      "program": "Kimbourne Family Resource Program",
      "agency": "East End Child/Parent Development Centre of Metro Toronto",
      "address": "200 Wolverleigh Blvd",
      "phone": "416-469-0495"
    },
    {
      "lat": 43.7625,
      "lng": -79.1954,
      "program": "Kognaasawin Drop-In",
      "agency": "Native Child and Family Services of Toronto",
      "address": "156A Galloway Rd",
      "phone": "416-969-8510"
    },
    {
      "lat": 43.6035,
      "lng": -79.5036,
      "program": "Lakeshore Area Multi-Services Project inc. (Lamp) - Main Site",
      "agency": "Lakeshore Area Multi-Services Project (Lamp) Inc.",
      "address": "185 Fifth St",
      "phone": "416-252-6471"
    },
    {
      "lat": 43.6381,
      "lng": -79.421,
      "program": "Liberty Littles",
      "agency": "College-Montrose Children's Place",
      "address": "25 Liberty St",
      "phone": "416-532-9485"
    },
    {
      "lat": 43.7248,
      "lng": -79.4019,
      "program": "Locke Library",
      "agency": "Macaulay Child Development Centre",
      "address": "3083 Yonge St",
      "phone": "416-783-7298"
    },
    {
      "lat": 43.5955,
      "lng": -79.5274,
      "program": "Long Branch Drop-In",
      "agency": "Lakeshore Area Multi-Services Project (Lamp) Inc.",
      "address": "3381 Lake Shore Blvd W",
      "phone": "416-252-6471"
    },
    {
      "lat": 43.6948,
      "lng": -79.4557,
      "program": "Macaulay Child Development Centre",
      "agency": "Macaulay Child Development Centre",
      "address": "2010 Eglinton Ave W",
      "phone": "416-653-3270"
    },
    {
      "lat": 43.8079,
      "lng": -79.2196,
      "program": "Malvern Family Resource Centre",
      "agency": "Malvern Family Resource Centre",
      "address": "1321 Neilson Rd",
      "phone": "416-284-4184"
    },
    {
      "lat": 43.8182,
      "lng": -79.2055,
      "program": "Malvern Family Resource Centre - Main Site",
      "agency": "Malvern Family Resource Centre",
      "address": "90 Littles Rd",
      "phone": "416-284-4184"
    },
    {
      "lat": 43.8085,
      "lng": -79.2166,
      "program": "Malvern Library",
      "agency": "Malvern Family Resource Centre",
      "address": "30 Sewells Rd",
      "phone": "416-281-1376"
    },
    {
      "lat": 43.7969,
      "lng": -79.2096,
      "program": "Malvern Resource Centre",
      "agency": "Malvern Family Resource Centre",
      "address": "95 Murison Blvd",
      "phone": "416-281-1376"
    },
    {
      "lat": 43.696,
      "lng": -79.4474,
      "program": "Maria A Shchuka Library",
      "agency": "Macaulay Child Development Centre",
      "address": "1745 Eglinton Ave W",
      "phone": "416-783-7298"
    },
    {
      "lat": 43.8143,
      "lng": -79.2185,
      "program": "Mary Shadd Public School",
      "agency": "Malvern Family Resource Centre",
      "address": "135 Hupfield Trail",
      "phone": "416-281-1376"
    },
    {
      "lat": 43.7989,
      "lng": -79.3583,
      "program": "McNicoll Main Site",
      "agency": "Adventure Place",
      "address": "155 McNicoll Ave",
      "phone": "416-494-1579 x 301"
    },
    {
      "lat": 43.7476,
      "lng": -79.2804,
      "program": "Mcgregor Park Library",
      "agency": "Family Day Care Services",
      "address": "2231 Lawrence Ave E",
      "phone": "416-438-1800"
    },
    {
      "lat": 43.8296,
      "lng": -79.2748,
      "program": "Miliken Park Community Recreation Centre",
      "agency": "Malvern Family Resource Centre",
      "address": "4325 Mccowan Rd",
      "phone": "416-281-1376"
    },
    {
      "lat": 43.6147,
      "lng": -79.4939,
      "program": "Mimico Library",
      "agency": "Lakeshore Area Multi-Services Project (Lamp) Inc.",
      "address": "47 Station Rd",
      "phone": "416-252-6471"
    },
    {
      "lat": 43.7746,
      "lng": -79.4087,
      "program": "Mitchell Field Satellite",
      "agency": "Adventure Place",
      "address": "89 Church Ave",
      "phone": "416-494-1579 x 301"
    },
    {
      "lat": 43.6407,
      "lng": -79.4334,
      "program": "More Than Child's Play",
      "agency": "More Than Child's Play",
      "address": "220 Cowan Ave",
      "phone": "416-516-3917"
    },
    {
      "lat": 43.7864,
      "lng": -79.1946,
      "program": "Mornelle Family Resource Centre",
      "agency": "East Scarborough Boys' and Girls' Club",
      "address": "110 Mornelle Crt",
      "phone": "416-287-3578"
    },
    {
      "lat": 43.6822,
      "lng": -79.4247,
      "program": "Mothercraft West",
      "agency": "Canadian Mothercraft Society",
      "address": "646 St Clair Ave W",
      "phone": "416-920-3515 x 100"
    },
    {
      "lat": 43.6866,
      "lng": -79.4884,
      "program": "Mount Dennis Library",
      "agency": "Macaulay Child Development Centre",
      "address": "1123 Weston Rd",
      "phone": "416-783-7298"
    },
    {
      "lat": 43.8138,
      "lng": -79.2254,
      "program": "Neilson House Satellite",
      "agency": "Malvern Family Resource Centre",
      "address": "1575 Neilson Rd",
      "phone": "416-281-1376"
    },
    {
      "lat": 43.6865,
      "lng": -79.4384,
      "program": "Oakwood Library Satellite",
      "agency": "Canadian Mothercraft Society",
      "address": "341 Oakwood Ave",
      "phone": "416-920-3515 x 100"
    },
    {
      "lat": 43.6613,
      "lng": -79.3848,
      "program": "Ontario Aboriginal EarlyON Centre",
      "agency": "Native Child and Family Services of Toronto",
      "address": "30 College St",
      "phone": "416-969-8510"
    },
    {
      "lat": 43.7161,
      "lng": -79.4315,
      "program": "Our Lady of Assumption School",
      "agency": "Macaulay Child Development Centre",
      "address": "125 Glenmount Ave",
      "phone": "416-783-7298"
    },
    {
      "lat": 43.6585,
      "lng": -79.3645,
      "program": "Parents for Better Beginnings (Regent)",
      "agency": "Regent Park Community Health Centre",
      "address": "38 Regent St",
      "phone": "416-362-0805"
    },
    {
      "lat": 43.6579,
      "lng": -79.3619,
      "program": "Parents for Better Beginnings (Shuter)",
      "agency": "Regent Park Community Health Centre",
      "address": "402 Shuter St",
      "phone": "416-362-0805"
    },
    {
      "lat": 43.6641,
      "lng": -79.3624,
      "program": "Parents for Better Beginnings (Spruce)",
      "agency": "Regent Park Community Health Centre",
      "address": "101 Spruce St",
      "phone": "416-362-0805"
    },
    {
      "lat": 43.6398,
      "lng": -79.4464,
      "program": "Parkdale Community Health Centre Satellite",
      "agency": "Earlscourt-Creche Child Development Institute",
      "address": "27 Roncesvalles Ave",
      "phone": "416-762-3700"
    },
    {
      "lat": 43.7753,
      "lng": -79.3409,
      "program": "Parkway Forest Satellite",
      "agency": "Family Day Care Services",
      "address": "121 Parkway Forest Dr",
      "phone": "416-496-2601"
    },
    {
      "lat": 43.757,
      "lng": -79.3126,
      "program": "Parkway Mall Satellite",
      "agency": "Family Day Care Services",
      "address": "85 Ellesmere Rd",
      "phone": "416-438-1800"
    },
    {
      "lat": 43.6624,
      "lng": -79.4393,
      "program": "Pauline Public School Satellite",
      "agency": "Davenport-Perth Neighbourhood & Community Health Centre",
      "address": "100 Pauline Ave",
      "phone": "416-588-3577"
    },
    {
      "lat": 43.766,
      "lng": -79.3937,
      "program": "People's Church Satellite",
      "agency": "Adventure Place",
      "address": "374 Sheppard Ave E",
      "phone": "416-494-1579 x 301"
    },
    {
      "lat": 43.8246,
      "lng": -79.2902,
      "program": "Port Royal",
      "agency": "Malvern Family Resource Centre",
      "address": "408 Port Royal Trail",
      "phone": "416-281-1376"
    },
    {
      "lat": 43.7796,
      "lng": -79.1405,
      "program": "Port Union Library Satellite",
      "agency": "East Scarborough Boys' and Girls' Club",
      "address": "5450 Lawrence Ave E",
      "phone": "416-282-7284"
    },
    {
      "lat": 43.7462,
      "lng": -79.5817,
      "program": "Rexdale Community Hub",
      "agency": "Braeburn Neighbourhood Place Incorporated",
      "address": "21 Panorama Crt",
      "phone": "416-745-3113"
    },
    {
      "lat": 43.7462,
      "lng": -79.5817,
      "program": "Rexdale Hub",
      "agency": "Delta Family Resource Centre",
      "address": "21 Panorama Crt",
      "phone": "416-747-1172"
    },
    {
      "lat": 43.6694,
      "lng": -79.3337,
      "program": "River Oak Parent - Child Centre",
      "agency": "River Oak Parent-Child Centre Inc.",
      "address": "953 Gerrard St E",
      "phone": "416-463-5399"
    },
    {
      "lat": 43.65,
      "lng": -79.3686,
      "program": "River Oak Parent - Child Centre",
      "agency": "River Oak Parent-Child Centre Inc.",
      "address": "173 Front St E",
      "phone": "416-463-5399"
    },
    {
      "lat": 43.6727,
      "lng": -79.3209,
      "program": "River Oak Parent - Child Centre",
      "agency": "River Oak Parent-Child Centre Inc.",
      "address": "1470 Gerrard St E",
      "phone": "416-463-5399"
    },
    {
      "lat": 43.6658,
      "lng": -79.3519,
      "program": "S.E.A.S. Centre - East Chinatown Centre Satellite",
      "agency": "Massey Centre for Women",
      "address": "606 Gerrard St E",
      "phone": "416-466-8842"
    },
    {
      "lat": 43.6809,
      "lng": -79.4779,
      "program": "Santa Maria Catholic School",
      "agency": "Macaulay Child Development Centre",
      "address": "25 Avon Ave",
      "phone": "416-783-7298"
    },
    {
      "lat": 43.6517,
      "lng": -79.4051,
      "program": "Scadding Court EarlyON Centre",
      "agency": "Scadding Court Community Centre Incorporated",
      "address": "707 Dundas St W",
      "phone": "416-392-0335"
    },
    {
      "lat": 43.7985,
      "lng": -79.3186,
      "program": "Scarborough Agincourt EarlyON Centre",
      "agency": "West Scarborough Neighbourhood Community Centre",
      "address": "2900 Warden Ave",
      "phone": "416-491-1466"
    },
    {
      "lat": 43.7598,
      "lng": -79.2264,
      "program": "Scarborough Centre EarlyON Child and Family Centre",
      "agency": "Family Day Care Services",
      "address": "3478 Lawrence Ave E",
      "phone": "416-438-1800"
    },
    {
      "lat": 43.7666,
      "lng": -79.1952,
      "program": "Scarborough Centre for Healthy Communities",
      "agency": "Scarborough Centre for Healthy Communities",
      "address": "4110 Lawrence Ave E",
      "phone": "416-847-4141"
    },
    {
      "lat": 43.7727,
      "lng": -79.2569,
      "program": "Scarborough Civic Centre Library",
      "agency": "Family Day Care Services",
      "address": "156 Borough Dr",
      "phone": "416-438-1800"
    },
    {
      "lat": 43.7343,
      "lng": -79.2575,
      "program": "Scarborough Southwest EarlyON Centre (Main Site)",
      "agency": "West Scarborough Neighbourhood Community Centre",
      "address": "2555 Eglinton Ave E",
      "phone": "416-266-8289"
    },
    {
      "lat": 43.7006,
      "lng": -79.5255,
      "program": "Scarlett Manor Satellite",
      "agency": "George Hull Centre for Children and Families",
      "address": "1025 Scarlett Rd",
      "phone": "416-626-0215"
    },
    {
      "lat": 43.6036,
      "lng": -79.5,
      "program": "Second Street Drop-In",
      "agency": "Lakeshore Area Multi-Services Project (Lamp) Inc.",
      "address": "71 Second St",
      "phone": "416-252-6471"
    },
    {
      "lat": 43.7424,
      "lng": -79.4961,
      "program": "Sickkids Centre for Community Mental Health EarlyON Main Site",
      "agency": "SickKids Centre for Community Mental Health",
      "address": "1645 Sheppard Ave W",
      "phone": "416-633-4035"
    },
    {
      "lat": 43.6591,
      "lng": -79.3478,
      "program": "South Riverdale Child Parent Centre",
      "agency": "South Riverdale Child-Parent Centre",
      "address": "765 Queen St E",
      "phone": "416-469-3776"
    },
    {
      "lat": 43.6714,
      "lng": -79.4159,
      "program": "St Albans Boys and Girls Satellite",
      "agency": "College-Montrose Children's Place",
      "address": "843 Palmerston Ave",
      "phone": "416-534-8461"
    },
    {
      "lat": 43.7025,
      "lng": -79.5008,
      "program": "St Bernard Catholic School",
      "agency": "Macaulay Child Development Centre",
      "address": "12 Duckworth St",
      "phone": "416-783-7298"
    },
    {
      "lat": 43.7132,
      "lng": -79.4515,
      "program": "St Charles School",
      "agency": "Macaulay Child Development Centre",
      "address": "50 Claver Ave",
      "phone": "416-783-7298"
    },
    {
      "lat": 43.6257,
      "lng": -79.5012,
      "program": "St Louis",
      "agency": "Lakeshore Area Multi-Services Project (Lamp) Inc.",
      "address": "11 Morgan Ave",
      "phone": "416-252-6471"
    },
    {
      "lat": 43.7919,
      "lng": -79.4335,
      "program": "St Theo's Satellite",
      "agency": "Adventure Place",
      "address": "111 Cactus Ave",
      "phone": "416-494-1579 x 301"
    },
    {
      "lat": 43.6958,
      "lng": -79.4459,
      "program": "St Thomas Aquinas School",
      "agency": "Macaulay Child Development Centre",
      "address": "636 Glenholme Ave",
      "phone": "416-783-7298"
    },
    {
      "lat": 43.6473,
      "lng": -79.4336,
      "program": "St. Helen Children's Place",
      "agency": "College-Montrose Children's Place",
      "address": "66 Sheridan Ave",
      "phone": "416-532-9485"
    },
    {
      "lat": 43.6554,
      "lng": -79.3619,
      "program": "St. Pauls Family Resource Program",
      "agency": "EYET Early Learning Centre - Annie's Place",
      "address": "80 Sackville St",
      "phone": "416-686-3390 x 9792"
    },
    {
      "lat": 43.7065,
      "lng": -79.4458,
      "program": "Sts Cosmas and Damian School",
      "agency": "Macaulay Child Development Centre",
      "address": "111 Danesbury Ave",
      "phone": "416-783-7298"
    },
    {
      "lat": 43.6692,
      "lng": -79.4913,
      "program": "Syme-Woolner Family Resource",
      "agency": "Syme-Woolner Neighbourhood and Family Centre",
      "address": "69 Pritchard Ave",
      "phone": "416-767-2186"
    },
    {
      "lat": 43.7026,
      "lng": -79.3518,
      "program": "TNO Early Years Centre",
      "agency": "Yes I Can Nursery School of Toronto",
      "address": "1 Leaside Park Dr",
      "phone": "416-421-8997"
    },
    {
      "lat": 43.6876,
      "lng": -79.3097,
      "program": "Terry Fox Family Resource Program",
      "agency": "East End Child/Parent Development Centre of Metro Toronto",
      "address": "2 Gledhill Ave",
      "phone": "416-469-0495"
    },
    {
      "lat": 43.6665,
      "lng": -79.3811,
      "program": "The 519 Church St. Community Centre Family Resource Program",
      "agency": "The 519 Church St. Community Centre",
      "address": "519 Church St",
      "phone": "416-355-6796"
    },
    {
      "lat": 43.6626,
      "lng": -79.4232,
      "program": "The Children's Storefront",
      "agency": "The Toronto Child-Parent Development Centre",
      "address": "826 Bloor St W",
      "phone": "416-531-8151"
    },
    {
      "lat": 43.6533,
      "lng": -79.3988,
      "program": "The Cross Cultural Community Services Association (TCCSA) Satellite",
      "agency": "College-Montrose Children's Place",
      "address": "302 Spadina Ave",
      "phone": "416-977-4026"
    },
    {
      "lat": 43.6658,
      "lng": -79.4868,
      "program": "The Four Villages Community Health Centre",
      "agency": "Earlscourt-Creche Child Development Institute",
      "address": "3446 Dundas St W",
      "phone": "416-762-3700"
    },
    {
      "lat": 43.6866,
      "lng": -79.3568,
      "program": "The Massey Centre for Women - EarlyON Main Site",
      "agency": "Massey Centre for Women",
      "address": "1102 Broadview Ave",
      "phone": "416-425-3636"
    },
    {
      "lat": 43.6708,
      "lng": -79.4541,
      "program": "The Stop Community Food Centre Satellite",
      "agency": "Davenport-Perth Neighbourhood & Community Health Centre",
      "address": "1884 Davenport Rd",
      "phone": "416-588-3755"
    },
    {
      "lat": 43.8243,
      "lng": -79.2262,
      "program": "Thomas L. Wells Public School",
      "agency": "Malvern Family Resource Centre",
      "address": "69 Nightstar Rd",
      "phone": "416-281-1376"
    },
    {
      "lat": 43.7055,
      "lng": -79.3465,
      "program": "Thorncliffe Neighbourhood office",
      "agency": "TNO - The Neighbourhood Organization",
      "address": "45 Overlea Blvd",
      "phone": "416-421-8997"
    },
    {
      "lat": 43.7604,
      "lng": -79.5091,
      "program": "Tobermory Drop-In",
      "agency": "Jane/Finch Community and Family Centre",
      "address": "15 Tobermory Dr",
      "phone": "416-663-2733 x 264"
    },
    {
      "lat": 43.7265,
      "lng": -79.3029,
      "program": "Victoria Village Hub",
      "agency": "Family Day Care Services",
      "address": "1527 Victoria Park Ave",
      "phone": "416-438-1800"
    },
    {
      "lat": 43.6971,
      "lng": -79.5262,
      "program": "Village of Humber Heights",
      "agency": "George Hull Centre for Children and Families",
      "address": "2245 Lawrence Ave W",
      "phone": "416-626-0215"
    },
    {
      "lat": 43.7039,
      "lng": -79.2783,
      "program": "Warden Woods Community Centre",
      "agency": "West Scarborough Neighbourhood Community Centre",
      "address": "74 Firvalley Crt",
      "phone": "416-694-1138 x 157"
    },
    {
      "lat": 43.6353,
      "lng": -79.398,
      "program": "Waterfront Neighbourhood Centre Satellite",
      "agency": "College-Montrose Children's Place",
      "address": "627 Queens Quay W",
      "phone": "416-392-1509"
    },
    {
      "lat": 43.6353,
      "lng": -79.5615,
      "program": "West Mall",
      "agency": "George Hull Centre for Children and Families",
      "address": "295 The West Mall",
      "phone": "416-626-0215"
    },
    {
      "lat": 43.6497,
      "lng": -79.4214,
      "program": "West Neighbourhood House",
      "agency": "West Neighbourhood House O/A St. Christopher House",
      "address": "248 Ossington Ave",
      "phone": "416-532-4828"
    },
    {
      "lat": 43.6397,
      "lng": -79.4404,
      "program": "West Neighbourhood House",
      "agency": "West Neighbourhood House O/A St. Christopher House",
      "address": "1495 Queen St W",
      "phone": "416-532-4828"
    },
    {
      "lat": 43.718,
      "lng": -79.5243,
      "program": "Weston Family Resource Centre",
      "agency": "Northwood Neighbourhood Services",
      "address": "1860 Wilson Ave",
      "phone": "416-748-0788"
    },
    {
      "lat": 43.7018,
      "lng": -79.5208,
      "program": "Weston Library",
      "agency": "Macaulay Child Development Centre",
      "address": "2 King St",
      "phone": "416-783-7298"
    },
    {
      "lat": 43.7663,
      "lng": -79.4079,
      "program": "Willowdale Park (Summer Satellite)",
      "agency": "Adventure Place",
      "address": "75 Hollywood Ave",
      "phone": "416-494-1579 x 301"
    },
    {
      "lat": 43.7203,
      "lng": -79.6003,
      "program": "Woodbine Shopping Centre Satellite",
      "agency": "Braeburn Neighbourhood Place Incorporated",
      "address": "500 Rexdale Blvd",
      "phone": "416-745-3113"
    },
    {
      "lat": 43.8092,
      "lng": -79.2695,
      "program": "Woodside Library",
      "agency": "Malvern Family Resource Centre",
      "address": "1571 Sandhurst Cir",
      "phone": "416-281-1376"
    },
    {
      "lat": 43.7394,
      "lng": -79.5385,
      "program": "Woodview Library",
      "agency": "Northwood Neighbourhood Services",
      "address": "16 Bradstock Rd",
      "phone": "416-726-3704"
    },
    {
      "lat": 43.7433,
      "lng": -79.4045,
      "program": "Yes I Can Family Resource Centre",
      "agency": "Yes I Can Nursery School of Toronto",
      "address": "25 Old York Mills Rd",
      "phone": "416-486-4911"
    },
    {
      "lat": 43.6905,
      "lng": -79.3944,
      "program": "Yorkminster Park Baptist Church Satellite",
      "agency": "Canadian Mothercraft Society",
      "address": "1585 Yonge St",
      "phone": "416-920-3515 x 100"
    },
    {
      "lat": 43.6769,
      "lng": -79.4426,
      "program": "Yorktown Child and Family Centre - Dufferin St Clair Library Satellite",
      "agency": "Davenport-Perth Neighbourhood & Community Health Centre",
      "address": "1625 Dufferin St",
      "phone": "416-588-3755"
    },
    {
      "lat": 43.6673,
      "lng": -79.4395,
      "program": "Yorktown Child and Family Centre Wallace Emerson Satellite",
      "agency": "Davenport-Perth Neighbourhood & Community Health Centre",
      "address": "1260 Dufferin St",
      "phone": "416-588-3755"
    },
    {
      "lat": 43.7263,
      "lng": -79.2318,
      "program": "Young Women's Christian Association of Greater Toronto",
      "agency": "Young Women's Christian Association of Greater Toronto",
      "address": "3090 Kingston Rd",
      "phone": "416-266-1232 x 23"
    }
  ]